%!PS-Adobe-3.0 EPSF-3.0
%%Creator: MATLAB, The MathWorks, Inc. Version 8.1.0.604 (R2013a). Operating System: Microsoft Windows 8.
%%Title: C:\Users\Aleks\Documents\MATLAB\Thesis-Code\testing-and-explanation\MEORa waterflood.eps
%%CreationDate: 05/07/2015  16:27:39
%%DocumentNeededFonts: Helvetica
%%DocumentProcessColors: Cyan Magenta Yellow Black
%%LanguageLevel: 2
%%Pages: 1
%%BoundingBox:    95   238   515   553
%%EndComments

%%BeginProlog
% MathWorks dictionary
/MathWorks 160 dict begin
% definition operators
/bdef {bind def} bind def
/ldef {load def} bind def
/xdef {exch def} bdef
/xstore {exch store} bdef
% operator abbreviations
/c  /clip ldef
/cc /concat ldef
/cp /closepath ldef
/gr /grestore ldef
/gs /gsave ldef
/mt /moveto ldef
/np /newpath ldef
/cm /currentmatrix ldef
/sm /setmatrix ldef
/rm /rmoveto ldef
/rl /rlineto ldef
/s {show newpath} bdef
/sc {setcmykcolor} bdef
/sr /setrgbcolor ldef
/sg /setgray ldef
/w /setlinewidth ldef
/j /setlinejoin ldef
/cap /setlinecap ldef
/rc {rectclip} bdef
/rf {rectfill} bdef
% page state control
/pgsv () def
/bpage {/pgsv save def} bdef
/epage {pgsv restore} bdef
/bplot /gsave ldef
/eplot {stroke grestore} bdef
% orientation switch
/portraitMode 0 def /landscapeMode 1 def /rotateMode 2 def
% coordinate system mappings
/dpi2point 0 def
% font control
/FontSize 0 def
/FMS {/FontSize xstore findfont [FontSize 0 0 FontSize neg 0 0]
  makefont setfont} bdef
/ISOLatin1Encoding where {pop /WindowsLatin1Encoding 256 array bdef
ISOLatin1Encoding WindowsLatin1Encoding copy pop
/.notdef/.notdef/quotesinglbase/florin/quotedblbase/ellipsis/dagger
/daggerdbl/circumflex/perthousand/Scaron/guilsinglleft/OE/.notdef/.notdef
/.notdef/.notdef/quoteleft/quoteright/quotedblleft/quotedblright/bullet
/endash/emdash/tilde/trademark/scaron/guilsinglright/oe/.notdef/.notdef
/Ydieresis WindowsLatin1Encoding 128 32 getinterval astore pop}
{/WindowsLatin1Encoding StandardEncoding bdef} ifelse
/reencode {exch dup where {pop load} {pop StandardEncoding} ifelse
  exch dup 3 1 roll findfont dup length dict begin
  { 1 index /FID ne {def}{pop pop} ifelse } forall
  /Encoding exch def currentdict end definefont pop} bdef
/isroman {findfont /CharStrings get /Agrave known} bdef
/FMSR {3 1 roll 1 index dup isroman {reencode} {pop pop} ifelse
  exch FMS} bdef
/csm {1 dpi2point div -1 dpi2point div scale neg translate
 dup landscapeMode eq {pop -90 rotate}
  {rotateMode eq {90 rotate} if} ifelse} bdef
% line types: solid, dotted, dashed, dotdash
/SO { [] 0 setdash } bdef
/DO { [.5 dpi2point mul 4 dpi2point mul] 0 setdash } bdef
/DA { [6 dpi2point mul] 0 setdash } bdef
/DD { [.5 dpi2point mul 4 dpi2point mul 6 dpi2point mul 4
  dpi2point mul] 0 setdash } bdef
% macros for lines and objects
/L {lineto stroke} bdef
/MP {3 1 roll moveto 1 sub {rlineto} repeat} bdef
/AP {{rlineto} repeat} bdef
/PDlw -1 def
/W {/PDlw currentlinewidth def setlinewidth} def
/PP {closepath eofill} bdef
/DP {closepath stroke} bdef
/MR {4 -2 roll moveto dup  0 exch rlineto exch 0 rlineto
  neg 0 exch rlineto closepath} bdef
/FR {MR stroke} bdef
/PR {MR fill} bdef
/L1i {{currentfile picstr readhexstring pop} image} bdef
/tMatrix matrix def
/MakeOval {newpath tMatrix currentmatrix pop translate scale
0 0 1 0 360 arc tMatrix setmatrix} bdef
/FO {MakeOval stroke} bdef
/PO {MakeOval fill} bdef
/PD {currentlinewidth 2 div 0 360 arc fill
   PDlw -1 eq not {PDlw w /PDlw -1 def} if} def
/FA {newpath tMatrix currentmatrix pop translate scale
  0 0 1 5 -2 roll arc tMatrix setmatrix stroke} bdef
/PA {newpath tMatrix currentmatrix pop	translate 0 0 moveto scale
  0 0 1 5 -2 roll arc closepath tMatrix setmatrix fill} bdef
/FAn {newpath tMatrix currentmatrix pop translate scale
  0 0 1 5 -2 roll arcn tMatrix setmatrix stroke} bdef
/PAn {newpath tMatrix currentmatrix pop translate 0 0 moveto scale
  0 0 1 5 -2 roll arcn closepath tMatrix setmatrix fill} bdef
/vradius 0 def /hradius 0 def /lry 0 def
/lrx 0 def /uly 0 def /ulx 0 def /rad 0 def
/MRR {/vradius xdef /hradius xdef /lry xdef /lrx xdef /uly xdef
  /ulx xdef newpath tMatrix currentmatrix pop ulx hradius add uly
  vradius add translate hradius vradius scale 0 0 1 180 270 arc 
  tMatrix setmatrix lrx hradius sub uly vradius add translate
  hradius vradius scale 0 0 1 270 360 arc tMatrix setmatrix
  lrx hradius sub lry vradius sub translate hradius vradius scale
  0 0 1 0 90 arc tMatrix setmatrix ulx hradius add lry vradius sub
  translate hradius vradius scale 0 0 1 90 180 arc tMatrix setmatrix
  closepath} bdef
/FRR {MRR stroke } bdef
/PRR {MRR fill } bdef
/MlrRR {/lry xdef /lrx xdef /uly xdef /ulx xdef /rad lry uly sub 2 div def
  newpath tMatrix currentmatrix pop ulx rad add uly rad add translate
  rad rad scale 0 0 1 90 270 arc tMatrix setmatrix lrx rad sub lry rad
  sub translate rad rad scale 0 0 1 270 90 arc tMatrix setmatrix
  closepath} bdef
/FlrRR {MlrRR stroke } bdef
/PlrRR {MlrRR fill } bdef
/MtbRR {/lry xdef /lrx xdef /uly xdef /ulx xdef /rad lrx ulx sub 2 div def
  newpath tMatrix currentmatrix pop ulx rad add uly rad add translate
  rad rad scale 0 0 1 180 360 arc tMatrix setmatrix lrx rad sub lry rad
  sub translate rad rad scale 0 0 1 0 180 arc tMatrix setmatrix
  closepath} bdef
/FtbRR {MtbRR stroke } bdef
/PtbRR {MtbRR fill } bdef
/stri 6 array def /dtri 6 array def
/smat 6 array def /dmat 6 array def
/tmat1 6 array def /tmat2 6 array def /dif 3 array def
/asub {/ind2 exch def /ind1 exch def dup dup
  ind1 get exch ind2 get sub exch } bdef
/tri_to_matrix {
  2 0 asub 3 1 asub 4 0 asub 5 1 asub
  dup 0 get exch 1 get 7 -1 roll astore } bdef
/compute_transform {
  dmat dtri tri_to_matrix tmat1 invertmatrix 
  smat stri tri_to_matrix tmat2 concatmatrix } bdef
/ds {stri astore pop} bdef
/dt {dtri astore pop} bdef
/db {2 copy /cols xdef /rows xdef mul dup 3 mul string
  currentfile 
  3 index 0 eq {/ASCIIHexDecode filter}
  {/ASCII85Decode filter 3 index 2 eq {/RunLengthDecode filter} if }
  ifelse exch readstring pop
  dup 0 3 index getinterval /rbmap xdef
  dup 2 index dup getinterval /gbmap xdef
  1 index dup 2 mul exch getinterval /bbmap xdef pop pop}bdef
/it {gs np dtri aload pop moveto lineto lineto cp c
  cols rows 8 compute_transform 
  rbmap gbmap bbmap true 3 colorimage gr}bdef
/il {newpath moveto lineto stroke}bdef
currentdict end def
%%EndProlog

%%BeginSetup
MathWorks begin

0 cap

end
%%EndSetup

%%Page: 1 1
%%BeginPageSetup
%%PageBoundingBox:    95   238   515   553
MathWorks begin
bpage
%%EndPageSetup

%%BeginObject: obj1
bplot

/dpi2point 12 def
portraitMode 1140 6636 csm

    0     0  5049  3780 rc
85 dict begin %Colortable dictionary
/c0 { 0.000000 0.000000 0.000000 sr} bdef
/c1 { 1.000000 1.000000 1.000000 sr} bdef
/c2 { 0.900000 0.000000 0.000000 sr} bdef
/c3 { 0.000000 0.820000 0.000000 sr} bdef
/c4 { 0.000000 0.000000 0.800000 sr} bdef
/c5 { 0.910000 0.820000 0.320000 sr} bdef
/c6 { 1.000000 0.260000 0.820000 sr} bdef
/c7 { 0.000000 0.820000 0.820000 sr} bdef
c0
1 j
1 sg
   0    0 5050 3781 rf
6 w
0 3081 3913 0 0 -3081 656 3364 4 MP
PP
-3913 0 0 3081 3913 0 0 -3081 656 3364 5 MP stroke
4 w
DO
SO
6 w
0 sg
 656  283 mt 4569  283 L
 656 3364 mt 4569 3364 L
4569 3364 mt 4569  283 L
 656 3364 mt  656  283 L
 656 3364 mt 4569 3364 L
 656 3364 mt  656  283 L
 656 3364 mt  656 3324 L
 656  283 mt  656  322 L
%%IncludeResource: font Helvetica
/Helvetica /WindowsLatin1Encoding 120 FMSR

 623 3509 mt 
(0) s
1438 3364 mt 1438 3324 L
1438  283 mt 1438  322 L
1372 3509 mt 
(20) s
2221 3364 mt 2221 3324 L
2221  283 mt 2221  322 L
2155 3509 mt 
(40) s
3003 3364 mt 3003 3324 L
3003  283 mt 3003  322 L
2937 3509 mt 
(60) s
3786 3364 mt 3786 3324 L
3786  283 mt 3786  322 L
3720 3509 mt 
(80) s
4569 3364 mt 4569 3324 L
4569  283 mt 4569  322 L
4469 3509 mt 
(100) s
 656 3364 mt  695 3364 L
4569 3364 mt 4529 3364 L
 455 3408 mt 
(0.1) s
 656 2978 mt  695 2978 L
4569 2978 mt 4529 2978 L
 455 3022 mt 
(0.2) s
 656 2593 mt  695 2593 L
4569 2593 mt 4529 2593 L
 455 2637 mt 
(0.3) s
 656 2208 mt  695 2208 L
4569 2208 mt 4529 2208 L
 455 2252 mt 
(0.4) s
 656 1823 mt  695 1823 L
4569 1823 mt 4529 1823 L
 455 1867 mt 
(0.5) s
 656 1438 mt  695 1438 L
4569 1438 mt 4529 1438 L
 455 1482 mt 
(0.6) s
 656 1053 mt  695 1053 L
4569 1053 mt 4529 1053 L
 455 1097 mt 
(0.7) s
 656  668 mt  695  668 L
4569  668 mt 4529  668 L
 455  712 mt 
(0.8) s
 656  283 mt  695  283 L
4569  283 mt 4529  283 L
 455  327 mt 
(0.9) s
 656  283 mt 4569  283 L
 656 3364 mt 4569 3364 L
4569 3364 mt 4569  283 L
 656 3364 mt  656  283 L
gs 656 283 3914 3082 rc
/c8 { 0.000000 0.000000 1.000000 sr} bdef
c8
40 0 39 0 39 0 39 0 39 0 39 0 39 0 40 0 
39 0 39 0 39 0 39 0 39 0 39 0 39 0 40 0 
39 0 39 0 39 0 39 0 39 0 39 0 39 0 40 0 
39 0 39 3 39 140 39 328 39 248 39 130 40 75 39 50 
39 36 39 27 39 23 39 18 39 17 39 16 40 14 39 13 
39 12 39 12 39 12 39 11 39 10 39 11 40 11 39 10 
39 11 39 10 39 11 39 10 39 11 40 10 39 11 39 10 
39 11 39 11 39 11 39 11 39 11 40 11 39 12 39 11 
39 12 39 12 39 12 39 13 39 13 40 13 39 13 39 14 
39 14 39 14 39 15 39 15 40 15 39 16 39 17 39 17 
39 17 39 19 39 19 39 20 40 20 39 22 39 23 39 24 
39 25 39 27 39 28 39 30 40 33 39 35 39 39 39 42 
39 48 39 55 39 67 695 914 100 MP stroke
/c9 { 0.000000 0.500000 0.000000 sr} bdef
c9
40 0 39 0 39 0 39 0 39 0 39 0 39 0 40 0 
39 0 39 0 39 0 39 0 39 0 39 0 39 0 40 0 
39 0 39 0 39 0 39 0 39 0 39 0 39 0 40 0 
39 0 39 -3 39 -140 39 -328 39 -248 39 -130 40 -75 39 -50 
39 -36 39 -27 39 -23 39 -18 39 -17 39 -16 40 -14 39 -13 
39 -12 39 -12 39 -12 39 -11 39 -10 39 -11 40 -11 39 -10 
39 -11 39 -10 39 -11 39 -10 39 -11 40 -10 39 -11 39 -10 
39 -11 39 -11 39 -11 39 -11 39 -11 40 -11 39 -12 39 -11 
39 -12 39 -12 39 -12 39 -13 39 -13 40 -13 39 -13 39 -14 
39 -14 39 -14 39 -15 39 -15 40 -15 39 -16 39 -17 39 -17 
39 -17 39 -19 39 -19 39 -20 40 -20 39 -22 39 -23 39 -24 
39 -25 39 -27 39 -28 39 -30 40 -33 39 -35 39 -39 39 -42 
39 -48 39 -55 39 -67 695 2732 100 MP stroke
gr

c9
0 sg
2339  188 mt 
(Saturation) s

end %%Color Dict

eplot
%%EndObject

epage
end

showpage

%%Trailer
%%EOF
