%!PS-Adobe-3.0 EPSF-3.0
%%Creator: MATLAB, The MathWorks, Inc. Version 8.1.0.604 (R2013a). Operating System: Microsoft Windows 8.
%%Title: C:\Users\Aleks\Documents\MATLAB\L_meor_s.eps
%%CreationDate: 05/10/2015  17:03:16
%%DocumentNeededFonts: Helvetica
%%DocumentProcessColors: Cyan Magenta Yellow Black
%%LanguageLevel: 2
%%Pages: 1
%%BoundingBox:    90   175   520   616
%%EndComments

%%BeginProlog
% MathWorks dictionary
/MathWorks 160 dict begin
% definition operators
/bdef {bind def} bind def
/ldef {load def} bind def
/xdef {exch def} bdef
/xstore {exch store} bdef
% operator abbreviations
/c  /clip ldef
/cc /concat ldef
/cp /closepath ldef
/gr /grestore ldef
/gs /gsave ldef
/mt /moveto ldef
/np /newpath ldef
/cm /currentmatrix ldef
/sm /setmatrix ldef
/rm /rmoveto ldef
/rl /rlineto ldef
/s {show newpath} bdef
/sc {setcmykcolor} bdef
/sr /setrgbcolor ldef
/sg /setgray ldef
/w /setlinewidth ldef
/j /setlinejoin ldef
/cap /setlinecap ldef
/rc {rectclip} bdef
/rf {rectfill} bdef
% page state control
/pgsv () def
/bpage {/pgsv save def} bdef
/epage {pgsv restore} bdef
/bplot /gsave ldef
/eplot {stroke grestore} bdef
% orientation switch
/portraitMode 0 def /landscapeMode 1 def /rotateMode 2 def
% coordinate system mappings
/dpi2point 0 def
% font control
/FontSize 0 def
/FMS {/FontSize xstore findfont [FontSize 0 0 FontSize neg 0 0]
  makefont setfont} bdef
/ISOLatin1Encoding where {pop /WindowsLatin1Encoding 256 array bdef
ISOLatin1Encoding WindowsLatin1Encoding copy pop
/.notdef/.notdef/quotesinglbase/florin/quotedblbase/ellipsis/dagger
/daggerdbl/circumflex/perthousand/Scaron/guilsinglleft/OE/.notdef/.notdef
/.notdef/.notdef/quoteleft/quoteright/quotedblleft/quotedblright/bullet
/endash/emdash/tilde/trademark/scaron/guilsinglright/oe/.notdef/.notdef
/Ydieresis WindowsLatin1Encoding 128 32 getinterval astore pop}
{/WindowsLatin1Encoding StandardEncoding bdef} ifelse
/reencode {exch dup where {pop load} {pop StandardEncoding} ifelse
  exch dup 3 1 roll findfont dup length dict begin
  { 1 index /FID ne {def}{pop pop} ifelse } forall
  /Encoding exch def currentdict end definefont pop} bdef
/isroman {findfont /CharStrings get /Agrave known} bdef
/FMSR {3 1 roll 1 index dup isroman {reencode} {pop pop} ifelse
  exch FMS} bdef
/csm {1 dpi2point div -1 dpi2point div scale neg translate
 dup landscapeMode eq {pop -90 rotate}
  {rotateMode eq {90 rotate} if} ifelse} bdef
% line types: solid, dotted, dashed, dotdash
/SO { [] 0 setdash } bdef
/DO { [.5 dpi2point mul 4 dpi2point mul] 0 setdash } bdef
/DA { [6 dpi2point mul] 0 setdash } bdef
/DD { [.5 dpi2point mul 4 dpi2point mul 6 dpi2point mul 4
  dpi2point mul] 0 setdash } bdef
% macros for lines and objects
/L {lineto stroke} bdef
/MP {3 1 roll moveto 1 sub {rlineto} repeat} bdef
/AP {{rlineto} repeat} bdef
/PDlw -1 def
/W {/PDlw currentlinewidth def setlinewidth} def
/PP {closepath eofill} bdef
/DP {closepath stroke} bdef
/MR {4 -2 roll moveto dup  0 exch rlineto exch 0 rlineto
  neg 0 exch rlineto closepath} bdef
/FR {MR stroke} bdef
/PR {MR fill} bdef
/L1i {{currentfile picstr readhexstring pop} image} bdef
/tMatrix matrix def
/MakeOval {newpath tMatrix currentmatrix pop translate scale
0 0 1 0 360 arc tMatrix setmatrix} bdef
/FO {MakeOval stroke} bdef
/PO {MakeOval fill} bdef
/PD {currentlinewidth 2 div 0 360 arc fill
   PDlw -1 eq not {PDlw w /PDlw -1 def} if} def
/FA {newpath tMatrix currentmatrix pop translate scale
  0 0 1 5 -2 roll arc tMatrix setmatrix stroke} bdef
/PA {newpath tMatrix currentmatrix pop	translate 0 0 moveto scale
  0 0 1 5 -2 roll arc closepath tMatrix setmatrix fill} bdef
/FAn {newpath tMatrix currentmatrix pop translate scale
  0 0 1 5 -2 roll arcn tMatrix setmatrix stroke} bdef
/PAn {newpath tMatrix currentmatrix pop translate 0 0 moveto scale
  0 0 1 5 -2 roll arcn closepath tMatrix setmatrix fill} bdef
/vradius 0 def /hradius 0 def /lry 0 def
/lrx 0 def /uly 0 def /ulx 0 def /rad 0 def
/MRR {/vradius xdef /hradius xdef /lry xdef /lrx xdef /uly xdef
  /ulx xdef newpath tMatrix currentmatrix pop ulx hradius add uly
  vradius add translate hradius vradius scale 0 0 1 180 270 arc 
  tMatrix setmatrix lrx hradius sub uly vradius add translate
  hradius vradius scale 0 0 1 270 360 arc tMatrix setmatrix
  lrx hradius sub lry vradius sub translate hradius vradius scale
  0 0 1 0 90 arc tMatrix setmatrix ulx hradius add lry vradius sub
  translate hradius vradius scale 0 0 1 90 180 arc tMatrix setmatrix
  closepath} bdef
/FRR {MRR stroke } bdef
/PRR {MRR fill } bdef
/MlrRR {/lry xdef /lrx xdef /uly xdef /ulx xdef /rad lry uly sub 2 div def
  newpath tMatrix currentmatrix pop ulx rad add uly rad add translate
  rad rad scale 0 0 1 90 270 arc tMatrix setmatrix lrx rad sub lry rad
  sub translate rad rad scale 0 0 1 270 90 arc tMatrix setmatrix
  closepath} bdef
/FlrRR {MlrRR stroke } bdef
/PlrRR {MlrRR fill } bdef
/MtbRR {/lry xdef /lrx xdef /uly xdef /ulx xdef /rad lrx ulx sub 2 div def
  newpath tMatrix currentmatrix pop ulx rad add uly rad add translate
  rad rad scale 0 0 1 180 360 arc tMatrix setmatrix lrx rad sub lry rad
  sub translate rad rad scale 0 0 1 0 180 arc tMatrix setmatrix
  closepath} bdef
/FtbRR {MtbRR stroke } bdef
/PtbRR {MtbRR fill } bdef
/stri 6 array def /dtri 6 array def
/smat 6 array def /dmat 6 array def
/tmat1 6 array def /tmat2 6 array def /dif 3 array def
/asub {/ind2 exch def /ind1 exch def dup dup
  ind1 get exch ind2 get sub exch } bdef
/tri_to_matrix {
  2 0 asub 3 1 asub 4 0 asub 5 1 asub
  dup 0 get exch 1 get 7 -1 roll astore } bdef
/compute_transform {
  dmat dtri tri_to_matrix tmat1 invertmatrix 
  smat stri tri_to_matrix tmat2 concatmatrix } bdef
/ds {stri astore pop} bdef
/dt {dtri astore pop} bdef
/db {2 copy /cols xdef /rows xdef mul dup 3 mul string
  currentfile 
  3 index 0 eq {/ASCIIHexDecode filter}
  {/ASCII85Decode filter 3 index 2 eq {/RunLengthDecode filter} if }
  ifelse exch readstring pop
  dup 0 3 index getinterval /rbmap xdef
  dup 2 index dup getinterval /gbmap xdef
  1 index dup 2 mul exch getinterval /bbmap xdef pop pop}bdef
/it {gs np dtri aload pop moveto lineto lineto cp c
  cols rows 8 compute_transform 
  rbmap gbmap bbmap true 3 colorimage gr}bdef
/il {newpath moveto lineto stroke}bdef
currentdict end def
%%EndProlog

%%BeginSetup
MathWorks begin

0 cap

end
%%EndSetup

%%Page: 1 1
%%BeginPageSetup
%%PageBoundingBox:    90   175   520   616
MathWorks begin
bpage
%%EndPageSetup

%%BeginObject: obj1
bplot

/dpi2point 12 def
portraitMode 1080 7392 csm

    0     0  5166  5283 rc
85 dict begin %Colortable dictionary
/c0 { 0.000000 0.000000 0.000000 sr} bdef
/c1 { 1.000000 1.000000 1.000000 sr} bdef
/c2 { 0.900000 0.000000 0.000000 sr} bdef
/c3 { 0.000000 0.820000 0.000000 sr} bdef
/c4 { 0.000000 0.000000 0.800000 sr} bdef
/c5 { 0.910000 0.820000 0.320000 sr} bdef
/c6 { 1.000000 0.260000 0.820000 sr} bdef
/c7 { 0.000000 0.820000 0.820000 sr} bdef
c0
1 j
1 sg
   0    0 5167 5284 rf
6 w
0 4306 4003 0 0 -4306 672 4702 4 MP
PP
-4003 0 0 4306 4003 0 0 -4306 672 4702 5 MP stroke
4 w
DO
SO
6 w
0 sg
 672  396 mt 4675  396 L
 672 4702 mt 4675 4702 L
4675 4702 mt 4675  396 L
 672 4702 mt  672  396 L
 672 4702 mt 4675 4702 L
 672 4702 mt  672  396 L
 672 4702 mt  672 4658 L
 672  396 mt  672  439 L
%%IncludeResource: font Helvetica
/Helvetica /WindowsLatin1Encoding 120 FMSR

 639 4847 mt 
(0) s
1172 4702 mt 1172 4658 L
1172  396 mt 1172  439 L
1106 4847 mt 
(50) s
1672 4702 mt 1672 4658 L
1672  396 mt 1672  439 L
1572 4847 mt 
(100) s
2173 4702 mt 2173 4658 L
2173  396 mt 2173  439 L
2073 4847 mt 
(150) s
2673 4702 mt 2673 4658 L
2673  396 mt 2673  439 L
2573 4847 mt 
(200) s
3173 4702 mt 3173 4658 L
3173  396 mt 3173  439 L
3073 4847 mt 
(250) s
3674 4702 mt 3674 4658 L
3674  396 mt 3674  439 L
3574 4847 mt 
(300) s
4174 4702 mt 4174 4658 L
4174  396 mt 4174  439 L
4074 4847 mt 
(350) s
4675 4702 mt 4675 4658 L
4675  396 mt 4675  439 L
4575 4847 mt 
(400) s
 672 4702 mt  715 4702 L
4675 4702 mt 4631 4702 L
 404 4746 mt 
(0.25) s
 672 4271 mt  715 4271 L
4675 4271 mt 4631 4271 L
 471 4315 mt 
(0.3) s
 672 3840 mt  715 3840 L
4675 3840 mt 4631 3840 L
 404 3884 mt 
(0.35) s
 672 3410 mt  715 3410 L
4675 3410 mt 4631 3410 L
 471 3454 mt 
(0.4) s
 672 2979 mt  715 2979 L
4675 2979 mt 4631 2979 L
 404 3023 mt 
(0.45) s
 672 2549 mt  715 2549 L
4675 2549 mt 4631 2549 L
 471 2593 mt 
(0.5) s
 672 2118 mt  715 2118 L
4675 2118 mt 4631 2118 L
 404 2162 mt 
(0.55) s
 672 1687 mt  715 1687 L
4675 1687 mt 4631 1687 L
 471 1731 mt 
(0.6) s
 672 1257 mt  715 1257 L
4675 1257 mt 4631 1257 L
 404 1301 mt 
(0.65) s
 672  826 mt  715  826 L
4675  826 mt 4631  826 L
 471  870 mt 
(0.7) s
 672  396 mt  715  396 L
4675  396 mt 4631  396 L
 404  440 mt 
(0.75) s
 672  396 mt 4675  396 L
 672 4702 mt 4675 4702 L
4675 4702 mt 4675  396 L
 672 4702 mt  672  396 L
2400  301 mt 
(Saturation) s
gs 672 396 4004 4307 rc
/c8 { 0.000000 0.000000 1.000000 sr} bdef
c8
11 0 10 0 10 0 10 0 10 0 10 0 10 0 10 0 
10 0 10 0 10 0 10 -1 10 0 10 0 10 0 10 0 
10 0 10 0 10 0 10 0 10 0 10 0 10 0 10 0 
10 0 10 0 10 0 10 0 10 0 10 0 10 -1 10 0 
10 0 10 0 10 0 10 0 10 0 10 0 10 0 10 0 
10 0 10 0 10 0 10 0 10 0 10 0 10 46 10 345 
10 439 10 220 10 149 10 101 10 64 10 47 10 32 10 26 
10 18 10 16 10 11 10 10 10 7 10 6 10 4 10 3 
10 2 10 1 10 0 10 0 10 -2 10 -3 10 -4 10 -4 
10 -5 10 -6 10 -6 10 -7 10 -7 10 -8 10 -8 10 -9 
10 -8 10 -8 10 -8 10 -7 10 -7 10 -7 10 -7 10 -6 
10 -6 10 -6 10 -5 10 -5 10 -5 10 -4 10 -4 10 -4 
10 -4 10 -3 10 -3 10 -4 10 -3 10 -2 10 -3 10 -2 
10 -3 10 -2 10 -2 10 -3 10 -2 10 -2 10 -2 10 -2 
10 -3 10 -2 10 -2 10 -1 10 -2 10 -2 10 -2 10 -2 
10 -2 10 -2 10 -1 10 -2 10 -2 10 -2 10 -1 10 -2 
10 -1 10 -2 10 -2 10 -1 10 -2 11 -1 10 -2 10 -1 
10 -2 10 -1 10 -2 10 -1 10 -1 10 -2 10 -1 10 -1 
10 -2 10 -1 10 -1 10 -2 10 -1 10 -1 10 -2 10 -1 
10 -2 10 -1 10 -1 10 -1 10 -2 10 -1 10 -1 10 -1 
10 -2 10 -1 10 -1 10 -2 10 -1 10 -1 10 -1 10 -2 
10 -1 10 -1 10 -1 10 -1 10 -2 10 -1 10 -1 10 -1 
10 -1 10 -2 10 -1 10 -1 10 -1 10 -1 10 -2 10 -1 
10 -1 10 -1 10 -1 10 -1 10 -1 10 -1 10 -1 10 -1 
10 -2 10 -1 10 -1 10 -1 10 -1 10 -1 10 -1 10 -2 
10 -1 10 -1 10 -1 10 -1 10 -1 10 -1 10 -1 10 -1 
10 -1 10 -1 10 -1 10 -1 10 -1 10 0 10 -1 10 -1 
10 -1 10 -1 10 -1 10 -1 10 -1 10 -1 10 -1 10 -1 
10 -1 10 -1 10 -1 10 -1 10 -1 10 -1 10 -1 10 -1 
10 -1 10 -1 10 -1 10 -1 10 -1 10 -1 10 0 10 -1 
10 -1 10 -1 10 -1 10 -1 10 -1 10 -1 10 -1 10 -1 
10 -1 10 -1 10 0 10 -1 10 -1 10 -1 10 -1 10 0 
10 6 10 1 10 1 10 2 10 2 10 2 10 3 10 4 
10 4 10 5 11 6 10 7 10 7 10 9 10 10 10 11 
10 13 10 14 10 16 10 17 10 19 10 22 10 22 10 26 
10 27 10 29 10 31 10 34 10 36 10 39 10 40 10 43 
10 45 10 47 10 50 10 51 10 53 10 54 10 55 10 57 
10 57 10 58 10 57 1682 2016 300 MP stroke
10 57 10 55 10 54 10 53 10 49 10 47 10 56 10 74 
10 83 10 84 10 78 10 71 10 62 10 55 10 47 10 41 
10 36 10 32 10 28 10 26 10 22 10 21 10 19 10 17 
10 17 10 15 10 14 10 13 10 13 10 11 10 12 10 10 
10 11 10 10 10 9 10 9 10 9 10 9 10 8 10 8 
10 7 10 8 10 7 10 7 10 6 10 7 10 6 10 6 
10 6 10 6 10 5 10 5 10 5 10 5 10 5 10 5 
10 4 10 4 10 4 10 4 10 4 10 4 10 3 10 3 
10 4 10 3 10 2 10 3 10 3 10 2 10 2 10 2 
10 2 10 2 10 2 10 2 10 1 10 1 10 1 10 2 
10 1 10 0 10 1 10 1 10 0 10 1 10 0 10 1 
10 0 10 0 10 1 10 0 10 0 10 1 10 0 10 1 
10 1 10 2 10 1 10 3 682 496 101 MP stroke
gr

c8

end %%Color Dict

eplot
%%EndObject

epage
end

showpage

%%Trailer
%%EOF
