%!PS-Adobe-3.0 EPSF-3.0
%%Creator: MATLAB, The MathWorks, Inc. Version 8.1.0.604 (R2013a). Operating System: Microsoft Windows 8.
%%Title: C:\Users\Aleks\Documents\MATLAB\Thesis-Code\testing-and-explanation\simplified waterflood.eps
%%CreationDate: 05/07/2015  16:22:49
%%DocumentNeededFonts: Helvetica
%%DocumentProcessColors: Cyan Magenta Yellow Black
%%LanguageLevel: 2
%%Pages: 1
%%BoundingBox:    96   240   515   551
%%EndComments

%%BeginProlog
% MathWorks dictionary
/MathWorks 160 dict begin
% definition operators
/bdef {bind def} bind def
/ldef {load def} bind def
/xdef {exch def} bdef
/xstore {exch store} bdef
% operator abbreviations
/c  /clip ldef
/cc /concat ldef
/cp /closepath ldef
/gr /grestore ldef
/gs /gsave ldef
/mt /moveto ldef
/np /newpath ldef
/cm /currentmatrix ldef
/sm /setmatrix ldef
/rm /rmoveto ldef
/rl /rlineto ldef
/s {show newpath} bdef
/sc {setcmykcolor} bdef
/sr /setrgbcolor ldef
/sg /setgray ldef
/w /setlinewidth ldef
/j /setlinejoin ldef
/cap /setlinecap ldef
/rc {rectclip} bdef
/rf {rectfill} bdef
% page state control
/pgsv () def
/bpage {/pgsv save def} bdef
/epage {pgsv restore} bdef
/bplot /gsave ldef
/eplot {stroke grestore} bdef
% orientation switch
/portraitMode 0 def /landscapeMode 1 def /rotateMode 2 def
% coordinate system mappings
/dpi2point 0 def
% font control
/FontSize 0 def
/FMS {/FontSize xstore findfont [FontSize 0 0 FontSize neg 0 0]
  makefont setfont} bdef
/ISOLatin1Encoding where {pop /WindowsLatin1Encoding 256 array bdef
ISOLatin1Encoding WindowsLatin1Encoding copy pop
/.notdef/.notdef/quotesinglbase/florin/quotedblbase/ellipsis/dagger
/daggerdbl/circumflex/perthousand/Scaron/guilsinglleft/OE/.notdef/.notdef
/.notdef/.notdef/quoteleft/quoteright/quotedblleft/quotedblright/bullet
/endash/emdash/tilde/trademark/scaron/guilsinglright/oe/.notdef/.notdef
/Ydieresis WindowsLatin1Encoding 128 32 getinterval astore pop}
{/WindowsLatin1Encoding StandardEncoding bdef} ifelse
/reencode {exch dup where {pop load} {pop StandardEncoding} ifelse
  exch dup 3 1 roll findfont dup length dict begin
  { 1 index /FID ne {def}{pop pop} ifelse } forall
  /Encoding exch def currentdict end definefont pop} bdef
/isroman {findfont /CharStrings get /Agrave known} bdef
/FMSR {3 1 roll 1 index dup isroman {reencode} {pop pop} ifelse
  exch FMS} bdef
/csm {1 dpi2point div -1 dpi2point div scale neg translate
 dup landscapeMode eq {pop -90 rotate}
  {rotateMode eq {90 rotate} if} ifelse} bdef
% line types: solid, dotted, dashed, dotdash
/SO { [] 0 setdash } bdef
/DO { [.5 dpi2point mul 4 dpi2point mul] 0 setdash } bdef
/DA { [6 dpi2point mul] 0 setdash } bdef
/DD { [.5 dpi2point mul 4 dpi2point mul 6 dpi2point mul 4
  dpi2point mul] 0 setdash } bdef
% macros for lines and objects
/L {lineto stroke} bdef
/MP {3 1 roll moveto 1 sub {rlineto} repeat} bdef
/AP {{rlineto} repeat} bdef
/PDlw -1 def
/W {/PDlw currentlinewidth def setlinewidth} def
/PP {closepath eofill} bdef
/DP {closepath stroke} bdef
/MR {4 -2 roll moveto dup  0 exch rlineto exch 0 rlineto
  neg 0 exch rlineto closepath} bdef
/FR {MR stroke} bdef
/PR {MR fill} bdef
/L1i {{currentfile picstr readhexstring pop} image} bdef
/tMatrix matrix def
/MakeOval {newpath tMatrix currentmatrix pop translate scale
0 0 1 0 360 arc tMatrix setmatrix} bdef
/FO {MakeOval stroke} bdef
/PO {MakeOval fill} bdef
/PD {currentlinewidth 2 div 0 360 arc fill
   PDlw -1 eq not {PDlw w /PDlw -1 def} if} def
/FA {newpath tMatrix currentmatrix pop translate scale
  0 0 1 5 -2 roll arc tMatrix setmatrix stroke} bdef
/PA {newpath tMatrix currentmatrix pop	translate 0 0 moveto scale
  0 0 1 5 -2 roll arc closepath tMatrix setmatrix fill} bdef
/FAn {newpath tMatrix currentmatrix pop translate scale
  0 0 1 5 -2 roll arcn tMatrix setmatrix stroke} bdef
/PAn {newpath tMatrix currentmatrix pop translate 0 0 moveto scale
  0 0 1 5 -2 roll arcn closepath tMatrix setmatrix fill} bdef
/vradius 0 def /hradius 0 def /lry 0 def
/lrx 0 def /uly 0 def /ulx 0 def /rad 0 def
/MRR {/vradius xdef /hradius xdef /lry xdef /lrx xdef /uly xdef
  /ulx xdef newpath tMatrix currentmatrix pop ulx hradius add uly
  vradius add translate hradius vradius scale 0 0 1 180 270 arc 
  tMatrix setmatrix lrx hradius sub uly vradius add translate
  hradius vradius scale 0 0 1 270 360 arc tMatrix setmatrix
  lrx hradius sub lry vradius sub translate hradius vradius scale
  0 0 1 0 90 arc tMatrix setmatrix ulx hradius add lry vradius sub
  translate hradius vradius scale 0 0 1 90 180 arc tMatrix setmatrix
  closepath} bdef
/FRR {MRR stroke } bdef
/PRR {MRR fill } bdef
/MlrRR {/lry xdef /lrx xdef /uly xdef /ulx xdef /rad lry uly sub 2 div def
  newpath tMatrix currentmatrix pop ulx rad add uly rad add translate
  rad rad scale 0 0 1 90 270 arc tMatrix setmatrix lrx rad sub lry rad
  sub translate rad rad scale 0 0 1 270 90 arc tMatrix setmatrix
  closepath} bdef
/FlrRR {MlrRR stroke } bdef
/PlrRR {MlrRR fill } bdef
/MtbRR {/lry xdef /lrx xdef /uly xdef /ulx xdef /rad lrx ulx sub 2 div def
  newpath tMatrix currentmatrix pop ulx rad add uly rad add translate
  rad rad scale 0 0 1 180 360 arc tMatrix setmatrix lrx rad sub lry rad
  sub translate rad rad scale 0 0 1 0 180 arc tMatrix setmatrix
  closepath} bdef
/FtbRR {MtbRR stroke } bdef
/PtbRR {MtbRR fill } bdef
/stri 6 array def /dtri 6 array def
/smat 6 array def /dmat 6 array def
/tmat1 6 array def /tmat2 6 array def /dif 3 array def
/asub {/ind2 exch def /ind1 exch def dup dup
  ind1 get exch ind2 get sub exch } bdef
/tri_to_matrix {
  2 0 asub 3 1 asub 4 0 asub 5 1 asub
  dup 0 get exch 1 get 7 -1 roll astore } bdef
/compute_transform {
  dmat dtri tri_to_matrix tmat1 invertmatrix 
  smat stri tri_to_matrix tmat2 concatmatrix } bdef
/ds {stri astore pop} bdef
/dt {dtri astore pop} bdef
/db {2 copy /cols xdef /rows xdef mul dup 3 mul string
  currentfile 
  3 index 0 eq {/ASCIIHexDecode filter}
  {/ASCII85Decode filter 3 index 2 eq {/RunLengthDecode filter} if }
  ifelse exch readstring pop
  dup 0 3 index getinterval /rbmap xdef
  dup 2 index dup getinterval /gbmap xdef
  1 index dup 2 mul exch getinterval /bbmap xdef pop pop}bdef
/it {gs np dtri aload pop moveto lineto lineto cp c
  cols rows 8 compute_transform 
  rbmap gbmap bbmap true 3 colorimage gr}bdef
/il {newpath moveto lineto stroke}bdef
currentdict end def
%%EndProlog

%%BeginSetup
MathWorks begin

0 cap

end
%%EndSetup

%%Page: 1 1
%%BeginPageSetup
%%PageBoundingBox:    96   240   515   551
MathWorks begin
bpage
%%EndPageSetup

%%BeginObject: obj1
bplot

/dpi2point 12 def
portraitMode 1152 6612 csm

    0     0  5039  3726 rc
85 dict begin %Colortable dictionary
/c0 { 0.000000 0.000000 0.000000 sr} bdef
/c1 { 1.000000 1.000000 1.000000 sr} bdef
/c2 { 0.900000 0.000000 0.000000 sr} bdef
/c3 { 0.000000 0.820000 0.000000 sr} bdef
/c4 { 0.000000 0.000000 0.800000 sr} bdef
/c5 { 0.910000 0.820000 0.320000 sr} bdef
/c6 { 1.000000 0.260000 0.820000 sr} bdef
/c7 { 0.000000 0.820000 0.820000 sr} bdef
c0
1 j
1 sg
   0    0 5040 3727 rf
6 w
0 3037 3905 0 0 -3037 655 3316 4 MP
PP
-3905 0 0 3037 3905 0 0 -3037 655 3316 5 MP stroke
4 w
DO
SO
6 w
0 sg
 655  279 mt 4560  279 L
 655 3316 mt 4560 3316 L
4560 3316 mt 4560  279 L
 655 3316 mt  655  279 L
 655 3316 mt 4560 3316 L
 655 3316 mt  655  279 L
 655 3316 mt  655 3276 L
 655  279 mt  655  318 L
%%IncludeResource: font Helvetica
/Helvetica /WindowsLatin1Encoding 120 FMSR

 622 3461 mt 
(0) s
1436 3316 mt 1436 3276 L
1436  279 mt 1436  318 L
1403 3461 mt 
(2) s
2217 3316 mt 2217 3276 L
2217  279 mt 2217  318 L
2184 3461 mt 
(4) s
2998 3316 mt 2998 3276 L
2998  279 mt 2998  318 L
2965 3461 mt 
(6) s
3779 3316 mt 3779 3276 L
3779  279 mt 3779  318 L
3746 3461 mt 
(8) s
4560 3316 mt 4560 3276 L
4560  279 mt 4560  318 L
4494 3461 mt 
(10) s
 655 3316 mt  694 3316 L
4560 3316 mt 4520 3316 L
 454 3360 mt 
(0.1) s
 655 2936 mt  694 2936 L
4560 2936 mt 4520 2936 L
 454 2980 mt 
(0.2) s
 655 2556 mt  694 2556 L
4560 2556 mt 4520 2556 L
 454 2600 mt 
(0.3) s
 655 2177 mt  694 2177 L
4560 2177 mt 4520 2177 L
 454 2221 mt 
(0.4) s
 655 1797 mt  694 1797 L
4560 1797 mt 4520 1797 L
 454 1841 mt 
(0.5) s
 655 1417 mt  694 1417 L
4560 1417 mt 4520 1417 L
 454 1461 mt 
(0.6) s
 655 1038 mt  694 1038 L
4560 1038 mt 4520 1038 L
 454 1082 mt 
(0.7) s
 655  658 mt  694  658 L
4560  658 mt 4520  658 L
 454  702 mt 
(0.8) s
 655  279 mt  694  279 L
4560  279 mt 4520  279 L
 454  323 mt 
(0.9) s
 655  279 mt 4560  279 L
 655 3316 mt 4560 3316 L
4560 3316 mt 4560  279 L
 655 3316 mt  655  279 L
gs 655 279 3906 3038 rc
/c8 { 0.000000 0.000000 1.000000 sr} bdef
c8
8 0 8 0 8 0 8 0 7 0 8 0 8 0 8 0 
8 0 8 0 7 0 8 0 8 0 8 0 8 0 7 0 
8 0 8 0 8 0 8 0 7 0 8 0 8 0 8 0 
8 0 7 0 8 0 8 0 8 0 8 0 8 0 7 0 
8 0 8 0 8 0 8 0 7 0 8 0 8 0 8 0 
8 0 7 0 8 0 8 0 8 0 8 0 7 0 8 0 
8 0 8 0 8 0 8 0 7 0 8 0 8 0 8 0 
8 0 7 0 8 0 8 0 8 0 8 0 7 0 8 0 
8 0 8 0 8 0 7 0 8 0 8 0 8 0 8 0 
8 0 7 0 8 0 8 0 8 0 8 0 7 0 8 0 
8 0 8 0 8 0 7 0 8 0 8 0 8 0 8 0 
7 0 8 0 8 0 8 0 8 0 8 0 7 0 8 0 
8 0 8 0 8 0 7 0 8 0 8 0 8 0 8 0 
7 0 8 0 8 0 8 0 8 0 8 0 7 0 8 0 
8 0 8 0 8 0 7 0 8 0 8 0 8 0 8 0 
7 0 8 0 8 0 8 0 8 0 7 0 8 0 8 0 
8 0 8 0 8 0 7 0 8 0 8 0 8 0 8 0 
7 0 8 0 8 0 8 0 8 0 7 0 8 0 8 0 
8 2 8 67 7 282 8 249 8 148 8 87 8 56 8 39 
7 27 8 21 8 17 8 13 8 11 7 10 8 8 8 7 
8 7 8 6 7 5 8 5 8 4 8 5 8 4 7 3 
8 4 8 3 8 3 8 3 8 3 7 3 8 3 8 2 
8 3 8 2 7 3 8 2 8 3 8 2 8 2 7 2 
8 3 8 2 8 2 8 2 7 2 8 2 8 2 8 2 
8 2 8 2 7 2 8 2 8 2 8 2 8 2 7 2 
8 2 8 2 8 2 8 2 7 2 8 2 8 1 8 2 
8 2 8 2 7 2 8 2 8 2 8 2 8 2 7 2 
8 1 8 2 8 2 8 2 7 2 8 2 8 1 8 2 
8 2 7 2 8 2 8 2 8 1 8 2 8 2 7 2 
8 2 8 1 8 2 8 2 7 2 8 2 8 2 8 2 
8 1 7 2 8 2 8 2 8 2 8 2 7 2 8 2 
8 2 8 2 8 2 8 2 7 2 8 2 8 2 8 2 
8 2 7 2 8 2 8 2 8 1 8 2 7 2 8 2 
8 2 8 2 8 2 7 2 8 2 8 2 8 2 8 2 
8 2 7 2 8 2 8 2 8 1 8 2 7 2 8 2 
8 3 8 2 8 2 7 2 8 2 8 2 8 2 8 2 
7 2 8 2 8 2 8 2 8 2 8 2 7 2 8 2 
8 2 8 3 8 2 2220 1737 300 MP stroke
7 2 8 2 8 2 8 2 8 2 7 3 8 2 8 2 
8 2 8 2 8 2 7 3 8 2 8 2 8 2 8 3 
7 2 8 2 8 3 8 2 8 2 7 2 8 3 8 2 
8 2 8 2 7 3 8 2 8 2 8 3 8 2 8 3 
7 2 8 2 8 3 8 2 8 3 7 2 8 2 8 3 
8 2 8 2 7 3 8 2 8 3 8 2 8 3 7 2 
8 3 8 3 8 2 8 3 8 3 7 2 8 3 8 3 
8 2 8 3 7 3 8 3 8 2 8 3 8 3 7 3 
8 3 8 3 8 2 8 3 7 3 8 3 8 3 8 2 
8 3 8 3 7 3 8 3 8 3 8 3 8 3 7 3 
8 3 8 2 8 3 8 3 7 3 8 3 8 3 8 4 
8 3 7 3 8 3 8 3 8 3 8 4 8 3 7 3 
8 3 8 4 8 3 8 4 7 3 8 4 8 3 8 4 
8 3 7 4 8 3 8 4 8 4 8 4 8 4 7 3 
8 4 8 4 8 4 8 4 7 3 8 4 8 4 8 5 
8 4 7 4 8 4 8 4 8 4 8 4 7 5 8 4 
8 5 8 4 8 4 8 5 7 4 8 4 8 4 8 5 
8 5 7 5 8 4 8 5 8 5 8 5 7 5 8 6 
8 5 8 5 8 6 7 5 8 5 8 5 8 6 8 5 
8 6 7 6 8 6 8 5 8 6 8 7 7 6 8 7 
8 6 8 6 8 7 7 7 8 7 8 7 8 7 8 7 
7 7 8 7 8 8 8 7 8 7 8 8 7 8 8 8 
8 8 8 8 8 9 7 9 8 9 8 9 8 10 8 10 
7 11 8 10 8 11 8 11 8 11 7 11 8 12 8 12 
8 12 8 14 8 13 7 14 8 17 8 16 8 19 8 19 
658 801 201 MP stroke
/c9 { 0.000000 0.500000 0.000000 sr} bdef
c9
8 0 8 0 8 0 8 0 7 0 8 0 8 0 8 0 
8 0 8 0 7 0 8 0 8 0 8 0 8 0 7 0 
8 0 8 0 8 0 8 0 7 0 8 0 8 0 8 0 
8 0 7 0 8 0 8 0 8 0 8 0 8 0 7 0 
8 0 8 0 8 0 8 0 7 0 8 0 8 0 8 0 
8 0 7 0 8 0 8 0 8 0 8 0 7 0 8 0 
8 0 8 0 8 0 8 0 7 0 8 0 8 0 8 0 
8 0 7 0 8 0 8 0 8 0 8 0 7 0 8 0 
8 0 8 0 8 0 7 0 8 0 8 0 8 0 8 0 
8 0 7 0 8 0 8 0 8 0 8 0 7 0 8 0 
8 0 8 0 8 0 7 0 8 0 8 0 8 0 8 0 
7 0 8 0 8 0 8 0 8 0 8 0 7 0 8 0 
8 0 8 0 8 0 7 0 8 0 8 0 8 0 8 0 
7 0 8 0 8 0 8 0 8 0 8 0 7 0 8 0 
8 0 8 0 8 0 7 0 8 0 8 0 8 0 8 0 
7 0 8 0 8 0 8 0 8 0 7 0 8 0 8 0 
8 0 8 0 8 0 7 0 8 0 8 0 8 0 8 0 
7 0 8 0 8 0 8 0 8 0 7 0 8 0 8 0 
8 -2 8 -67 7 -282 8 -249 8 -148 8 -87 8 -56 8 -39 
7 -27 8 -21 8 -17 8 -13 8 -11 7 -10 8 -8 8 -7 
8 -7 8 -6 7 -5 8 -5 8 -4 8 -5 8 -4 7 -3 
8 -4 8 -3 8 -3 8 -3 8 -3 7 -3 8 -3 8 -2 
8 -3 8 -2 7 -3 8 -2 8 -3 8 -2 8 -2 7 -2 
8 -3 8 -2 8 -2 8 -2 7 -2 8 -2 8 -2 8 -2 
8 -2 8 -2 7 -2 8 -2 8 -2 8 -2 8 -2 7 -2 
8 -2 8 -2 8 -2 8 -2 7 -2 8 -2 8 -1 8 -2 
8 -2 8 -2 7 -2 8 -2 8 -2 8 -2 8 -2 7 -2 
8 -1 8 -2 8 -2 8 -2 7 -2 8 -2 8 -1 8 -2 
8 -2 7 -2 8 -2 8 -2 8 -1 8 -2 8 -2 7 -2 
8 -2 8 -1 8 -2 8 -2 7 -2 8 -2 8 -2 8 -2 
8 -1 7 -2 8 -2 8 -2 8 -2 8 -2 7 -2 8 -2 
8 -2 8 -2 8 -2 8 -2 7 -2 8 -2 8 -2 8 -2 
8 -2 7 -2 8 -2 8 -2 8 -1 8 -2 7 -2 8 -2 
8 -2 8 -2 8 -2 7 -2 8 -2 8 -2 8 -2 8 -2 
8 -2 7 -2 8 -2 8 -2 8 -1 8 -2 7 -2 8 -2 
8 -3 8 -2 8 -2 7 -2 8 -2 8 -2 8 -2 8 -2 
7 -2 8 -2 8 -2 8 -2 8 -2 8 -2 7 -2 8 -2 
8 -2 8 -3 8 -2 2220 1857 300 MP stroke
7 -2 8 -2 8 -2 8 -2 8 -2 7 -3 8 -2 8 -2 
8 -2 8 -2 8 -2 7 -3 8 -2 8 -2 8 -2 8 -3 
7 -2 8 -2 8 -3 8 -2 8 -2 7 -2 8 -3 8 -2 
8 -2 8 -2 7 -3 8 -2 8 -2 8 -3 8 -2 8 -3 
7 -2 8 -2 8 -3 8 -2 8 -3 7 -2 8 -2 8 -3 
8 -2 8 -2 7 -3 8 -2 8 -3 8 -2 8 -3 7 -2 
8 -3 8 -3 8 -2 8 -3 8 -3 7 -2 8 -3 8 -3 
8 -2 8 -3 7 -3 8 -3 8 -2 8 -3 8 -3 7 -3 
8 -3 8 -3 8 -2 8 -3 7 -3 8 -3 8 -3 8 -2 
8 -3 8 -3 7 -3 8 -3 8 -3 8 -3 8 -3 7 -3 
8 -3 8 -2 8 -3 8 -3 7 -3 8 -3 8 -3 8 -4 
8 -3 7 -3 8 -3 8 -3 8 -3 8 -4 8 -3 7 -3 
8 -3 8 -4 8 -3 8 -4 7 -3 8 -4 8 -3 8 -4 
8 -3 7 -4 8 -3 8 -4 8 -4 8 -4 8 -4 7 -3 
8 -4 8 -4 8 -4 8 -4 7 -3 8 -4 8 -4 8 -5 
8 -4 7 -4 8 -4 8 -4 8 -4 8 -4 7 -5 8 -4 
8 -5 8 -4 8 -4 8 -5 7 -4 8 -4 8 -4 8 -5 
8 -5 7 -5 8 -4 8 -5 8 -5 8 -5 7 -5 8 -6 
8 -5 8 -5 8 -6 7 -5 8 -5 8 -5 8 -6 8 -5 
8 -6 7 -6 8 -6 8 -5 8 -6 8 -7 7 -6 8 -7 
8 -6 8 -6 8 -7 7 -7 8 -7 8 -7 8 -7 8 -7 
7 -7 8 -7 8 -8 8 -7 8 -7 8 -8 7 -8 8 -8 
8 -8 8 -8 8 -9 7 -9 8 -9 8 -9 8 -10 8 -10 
7 -11 8 -10 8 -11 8 -11 8 -11 7 -11 8 -12 8 -12 
8 -12 8 -14 8 -13 7 -14 8 -17 8 -16 8 -19 8 -19 
658 2793 201 MP stroke
gr

c9
0 sg
2334  184 mt 
(Saturation) s

end %%Color Dict

eplot
%%EndObject

epage
end

showpage

%%Trailer
%%EOF
